[gd_scene load_steps=4 format=2]

[ext_resource path="res://objects/Shifter.gd" type="Script" id=1]
[ext_resource path="res://gfx/trigger-Sheet.png" type="Texture" id=2]

[sub_resource type="RectangleShape2D" id=1]

[node name="Shifter" type="Area2D"]
script = ExtResource( 1 )

[node name="Sprite" type="Sprite" parent="."]
texture = ExtResource( 2 )
hframes = 4
frame = 2

[node name="CollisionShape2D" type="CollisionShape2D" parent="."]
shape = SubResource( 1 )
[connection signal="body_entered" from="." to="." method="_on_Shifter_body_entered"]
