[gd_scene load_steps=7 format=2]

[ext_resource path="res://rooms/tileset.tres" type="TileSet" id=1]
[ext_resource path="res://rooms/room.gd" type="Script" id=2]
[ext_resource path="res://objects/Shifter.tscn" type="PackedScene" id=3]
[ext_resource path="res://gfx/background.png" type="Texture" id=4]
[ext_resource path="res://objects/Terminal.tscn" type="PackedScene" id=5]
[ext_resource path="res://objects/Key.tscn" type="PackedScene" id=6]

[node name="0" type="Node2D" groups=[
"room",
]]
script = ExtResource( 2 )

[node name="TileMap" type="TileMap" parent="."]
modulate = Color( 0.0823529, 0.694118, 0.478431, 1 )
tile_set = ExtResource( 1 )
cell_size = Vector2( 16, 16 )
format = 1
tile_data = PoolIntArray( 0, 0, 262149, 1, 0, 458756, 2, 0, 458756, 3, 0, 458756, 4, 0, 458756, 5, 0, 458756, 6, 0, 458756, 7, 0, 458756, 8, 0, 458755, 11, 0, 65541, 12, 0, 458756, 13, 0, 458756, 14, 0, 458756, 15, 0, 458756, 16, 0, 458756, 17, 0, 458756, 18, 0, 458756, 19, 0, 262148, 65536, 0, 131077, 65555, 0, 131077, 131072, 0, 131077, 131091, 0, 131077, 196608, 0, 131077, 196615, 0, 0, 196616, 0, 1, 196617, 0, 1, 196618, 0, 1, 196619, 0, 1, 196620, 0, 2, 196627, 0, 131077, 262144, 0, 131077, 262150, 0, 65541, 262151, 0, 327681, 262152, 0, 131073, 262153, 0, 131073, 262154, 0, 131073, 262155, 0, 131073, 262156, 0, 327680, 262157, 0, 458755, 262163, 0, 131077, 327680, 0, 131077, 327699, 0, 131077, 393216, 0, 327682, 393217, 0, 1, 393218, 0, 1, 393219, 0, 2, 393232, 0, 0, 393233, 0, 1, 393234, 0, 1, 393235, 0, 327683, 458752, 0, 327684, 458753, 0, 131073, 458754, 0, 131073, 458755, 0, 327680, 458756, 0, 458755, 458767, 0, 65541, 458768, 0, 327681, 458769, 0, 131073, 458770, 0, 131073, 458771, 0, 327685, 524288, 0, 5, 524307, 0, 5, 655367, 0, 0, 655368, 0, 1, 655369, 0, 1, 655370, 0, 1, 655371, 0, 1, 655372, 0, 2, 720896, 0, 458754, 720902, 0, 0, 720903, 0, 3, 720904, 0, 65537, 720905, 0, 65537, 720906, 0, 65537, 720907, 0, 65537, 720908, 0, 4, 720909, 0, 2, 720915, 0, 458754, 786432, 0, 131077, 786437, 0, 65541, 786438, 0, 327681, 786439, 0, 131073, 786440, 0, 131073, 786441, 0, 131073, 786442, 0, 131073, 786443, 0, 131073, 786444, 0, 131073, 786445, 0, 327680, 786446, 0, 458755, 786451, 0, 131077, 851968, 0, 131077, 851987, 0, 131077, 917504, 0, 131077, 917523, 0, 131077, 983040, 0, 327682, 983041, 0, 1, 983042, 0, 1, 983043, 0, 2, 983056, 0, 0, 983057, 0, 1, 983058, 0, 1, 983059, 0, 327683, 1048576, 0, 327684, 1048577, 0, 131073, 1048578, 0, 131073, 1048579, 0, 327680, 1048580, 0, 458755, 1048591, 0, 65541, 1048592, 0, 327681, 1048593, 0, 131073, 1048594, 0, 131073, 1048595, 0, 327685, 1114112, 0, 131077, 1114131, 0, 131077, 1179648, 0, 131077, 1179667, 0, 131077, 1245184, 0, 262146, 1245185, 0, 458756, 1245186, 0, 458756, 1245187, 0, 458756, 1245188, 0, 458756, 1245189, 0, 458756, 1245190, 0, 458756, 1245191, 0, 458756, 1245192, 0, 458755, 1245195, 0, 65541, 1245196, 0, 458756, 1245197, 0, 458756, 1245198, 0, 458756, 1245199, 0, 458756, 1245200, 0, 458756, 1245201, 0, 458756, 1245202, 0, 458756, 1245203, 0, 262147 )

[node name="Sprite" type="Sprite" parent="TileMap"]
scale = Vector2( 20, 20 )
z_index = -4
texture = ExtResource( 4 )
centered = false
__meta__ = {
"_edit_lock_": true
}

[node name="Tween" type="Tween" parent="."]

[node name="Shifter" parent="." instance=ExtResource( 3 )]
position = Vector2( 163, 147 )
dir = 1

[node name="Key" parent="." instance=ExtResource( 6 )]
position = Vector2( 210, 284 )

[node name="Hologram" parent="." instance=ExtResource( 5 )]
position = Vector2( 126, 152 )
text = "Left and Right to move, Z to jump
Up to interact with items
R to reset when you get stuck :D"
[connection signal="tween_all_completed" from="Tween" to="." method="_on_Tween_tween_all_completed"]
