[gd_scene load_steps=7 format=2]

[ext_resource path="res://rooms/tileset.tres" type="TileSet" id=1]
[ext_resource path="res://rooms/room.gd" type="Script" id=2]
[ext_resource path="res://objects/spike.tscn" type="PackedScene" id=3]
[ext_resource path="res://gfx/background.png" type="Texture" id=4]
[ext_resource path="res://objects/Shifter.tscn" type="PackedScene" id=5]
[ext_resource path="res://objects/Terminal.tscn" type="PackedScene" id=6]

[node name="0" type="Node2D" groups=[
"room",
]]
script = ExtResource( 2 )

[node name="Shifter" parent="." instance=ExtResource( 5 )]
position = Vector2( 213, 290 )

[node name="TileMap" type="TileMap" parent="."]
modulate = Color( 0.156863, 0.301961, 0.490196, 1 )
tile_set = ExtResource( 1 )
cell_size = Vector2( 16, 16 )
format = 1
tile_data = PoolIntArray( 0, 0, 262149, 1, 0, 458756, 2, 0, 458756, 3, 0, 458756, 4, 0, 458756, 5, 0, 458756, 6, 0, 458756, 7, 0, 458756, 8, 0, 458755, 11, 0, 65541, 12, 0, 458756, 13, 0, 458756, 14, 0, 458756, 15, 0, 458756, 16, 0, 458756, 17, 0, 458756, 18, 0, 458756, 19, 0, 262148, 65536, 0, 131077, 65555, 0, 131077, 131072, 0, 131077, 131074, 0, 0, 131075, 0, 2, 131081, 0, 65541, 131082, 0, 458755, 131088, 0, 0, 131089, 0, 2, 131091, 0, 131077, 196608, 0, 131077, 196610, 0, 131072, 196611, 0, 131074, 196624, 0, 131072, 196625, 0, 131074, 196627, 0, 131077, 262144, 0, 131077, 262153, 0, 65541, 262154, 0, 458755, 262163, 0, 131077, 327680, 0, 131077, 327699, 0, 131077, 393216, 0, 131077, 393225, 0, 65541, 393226, 0, 458755, 393235, 0, 131077, 458752, 0, 131077, 458771, 0, 131077, 524288, 0, 5, 524296, 0, 393216, 524299, 0, 393216, 524307, 0, 5, 589826, 0, 458754, 589828, 0, 458754, 589830, 0, 458754, 589837, 0, 458754, 589839, 0, 458754, 589841, 0, 458754, 655362, 0, 5, 655364, 0, 5, 655366, 0, 5, 655373, 0, 5, 655375, 0, 5, 655377, 0, 5, 720896, 0, 458754, 720904, 0, 393216, 720907, 0, 393216, 720915, 0, 458754, 786432, 0, 131077, 786451, 0, 131077, 851968, 0, 131077, 851977, 0, 65541, 851978, 0, 458755, 851987, 0, 131077, 917504, 0, 131077, 917523, 0, 131077, 983040, 0, 131077, 983049, 0, 65541, 983050, 0, 458755, 983059, 0, 131077, 1048576, 0, 131077, 1048578, 0, 0, 1048579, 0, 2, 1048592, 0, 0, 1048593, 0, 2, 1048595, 0, 131077, 1114112, 0, 131077, 1114114, 0, 131072, 1114115, 0, 131074, 1114121, 0, 65541, 1114122, 0, 458755, 1114128, 0, 131072, 1114129, 0, 131074, 1114131, 0, 131077, 1179648, 0, 131077, 1179667, 0, 131077, 1245184, 0, 262146, 1245185, 0, 458756, 1245186, 0, 458756, 1245187, 0, 458756, 1245188, 0, 458756, 1245189, 0, 458756, 1245190, 0, 458756, 1245191, 0, 458756, 1245192, 0, 458755, 1245195, 0, 65541, 1245196, 0, 458756, 1245197, 0, 458756, 1245198, 0, 458756, 1245199, 0, 458756, 1245200, 0, 458756, 1245201, 0, 458756, 1245202, 0, 458756, 1245203, 0, 262147 )

[node name="background" type="Sprite" parent="TileMap"]
scale = Vector2( 20, 20 )
z_index = -1
texture = ExtResource( 4 )
centered = false
__meta__ = {
"_edit_lock_": true
}

[node name="Tween" type="Tween" parent="."]

[node name="spike" parent="." instance=ExtResource( 3 )]
position = Vector2( 40, 248 )

[node name="spike2" parent="." instance=ExtResource( 3 )]
position = Vector2( 56, 248 )

[node name="spike3" parent="." instance=ExtResource( 3 )]
position = Vector2( 264, 248 )

[node name="spike4" parent="." instance=ExtResource( 3 )]
position = Vector2( 280, 248 )

[node name="spike5" parent="." instance=ExtResource( 3 )]
position = Vector2( 40, 72 )
rotation = 3.14159

[node name="spike6" parent="." instance=ExtResource( 3 )]
position = Vector2( 56, 72 )
rotation = 3.14159

[node name="spike7" parent="." instance=ExtResource( 3 )]
position = Vector2( 264, 72 )
rotation = 3.14159

[node name="spike8" parent="." instance=ExtResource( 3 )]
position = Vector2( 280, 72 )
rotation = 3.14159

[node name="Terminal" parent="." instance=ExtResource( 6 )]
position = Vector2( 160, 200 )
text = "Two years ago, some kind of carnivorous monster got out of my lab.
It killed some aliens who were having a picnic outside!"

[node name="Shifter2" parent="." instance=ExtResource( 5 )]
position = Vector2( 110, 290 )
dir = 2
[connection signal="tween_all_completed" from="Tween" to="." method="_on_Tween_tween_all_completed"]
