[gd_scene load_steps=7 format=2]

[ext_resource path="res://rooms/tileset.tres" type="TileSet" id=1]
[ext_resource path="res://rooms/room.gd" type="Script" id=2]
[ext_resource path="res://objects/spike.tscn" type="PackedScene" id=3]
[ext_resource path="res://gfx/background.png" type="Texture" id=4]
[ext_resource path="res://objects/Shifter.tscn" type="PackedScene" id=5]
[ext_resource path="res://objects/Terminal.tscn" type="PackedScene" id=6]

[node name="0" type="Node2D" groups=[
"room",
]]
script = ExtResource( 2 )

[node name="TileMap" type="TileMap" parent="."]
modulate = Color( 0.345098, 0.156863, 0.490196, 1 )
tile_set = ExtResource( 1 )
cell_size = Vector2( 16, 16 )
format = 1
tile_data = PoolIntArray( 0, 0, 0, 1, 0, 1, 2, 0, 1, 3, 0, 1, 4, 0, 1, 5, 0, 1, 6, 0, 262144, 7, 0, 458756, 8, 0, 458755, 11, 0, 65541, 12, 0, 458756, 13, 0, 393221, 14, 0, 458756, 15, 0, 458756, 16, 0, 262145, 17, 0, 1, 18, 0, 1, 19, 0, 2, 65536, 0, 327684, 65537, 0, 131073, 65538, 0, 131073, 65539, 0, 131073, 65540, 0, 131073, 65541, 0, 131073, 65542, 0, 327685, 65549, 0, 131077, 65552, 0, 131072, 65553, 0, 131073, 65554, 0, 131073, 65555, 0, 327685, 131072, 0, 131077, 131078, 0, 131077, 131081, 0, 65541, 131082, 0, 458755, 131085, 0, 131077, 131091, 0, 131077, 196608, 0, 131077, 196610, 0, 65541, 196611, 0, 393221, 196612, 0, 458755, 196614, 0, 131077, 196621, 0, 131077, 196623, 0, 65541, 196624, 0, 393221, 196625, 0, 458755, 196627, 0, 131077, 262144, 0, 131077, 262147, 0, 131077, 262150, 0, 131077, 262157, 0, 131077, 262160, 0, 131077, 262163, 0, 131077, 327680, 0, 393220, 327681, 0, 458755, 327683, 0, 131077, 327685, 0, 65541, 327686, 0, 393217, 327687, 0, 458756, 327688, 0, 458755, 327691, 0, 65541, 327692, 0, 458756, 327693, 0, 393217, 327694, 0, 458755, 327696, 0, 131077, 327698, 0, 65541, 327699, 0, 393219, 393216, 0, 131077, 393219, 0, 131077, 393222, 0, 131077, 393229, 0, 131077, 393232, 0, 131077, 393235, 0, 131077, 458752, 0, 131077, 458755, 0, 131077, 458758, 0, 131077, 458765, 0, 131077, 458768, 0, 131077, 458771, 0, 131077, 524288, 0, 5, 524290, 0, 65541, 524291, 0, 393217, 524292, 0, 458755, 524294, 0, 5, 524297, 0, 65541, 524298, 0, 458755, 524301, 0, 5, 524303, 0, 65541, 524304, 0, 393217, 524305, 0, 458755, 524307, 0, 5, 589827, 0, 131077, 589840, 0, 131077, 655363, 0, 131077, 655376, 0, 131077, 720896, 0, 0, 720897, 0, 1, 720898, 0, 1, 720899, 0, 196608, 720900, 0, 458756, 720901, 0, 458756, 720902, 0, 262145, 720903, 0, 1, 720904, 0, 2, 720906, 0, 65541, 720907, 0, 262145, 720908, 0, 1, 720909, 0, 1, 720910, 0, 1, 720911, 0, 1, 720912, 0, 458752, 720913, 0, 1, 720914, 0, 1, 720915, 0, 2, 786432, 0, 327684, 786433, 0, 131073, 786434, 0, 131073, 786435, 0, 131074, 786438, 0, 65536, 786439, 0, 65537, 786440, 0, 65538, 786443, 0, 65536, 786444, 0, 65537, 786445, 0, 65537, 786446, 0, 65537, 786447, 0, 65537, 786448, 0, 65537, 786449, 0, 65537, 786450, 0, 65537, 786451, 0, 65538, 851968, 0, 131077, 851974, 0, 65536, 851975, 0, 65537, 851976, 0, 65538, 851979, 0, 65536, 851980, 0, 65537, 851981, 0, 65537, 851982, 0, 65537, 851983, 0, 65537, 851984, 0, 65537, 851985, 0, 65537, 851986, 0, 65537, 851987, 0, 65538, 917504, 0, 131077, 917506, 0, 65541, 917507, 0, 262145, 917508, 0, 2, 917510, 0, 131072, 917511, 0, 131073, 917512, 0, 327680, 917513, 0, 458755, 917515, 0, 65536, 917516, 0, 65537, 917517, 0, 65537, 917518, 0, 65537, 917519, 0, 65537, 917520, 0, 65537, 917521, 0, 65537, 917522, 0, 65537, 917523, 0, 65538, 983040, 0, 131077, 983043, 0, 65536, 983044, 0, 65538, 983051, 0, 65536, 983052, 0, 65537, 983053, 0, 65537, 983054, 0, 65537, 983055, 0, 65537, 983056, 0, 65537, 983057, 0, 65537, 983058, 0, 65537, 983059, 0, 65538, 1048576, 0, 393220, 1048577, 0, 458755, 1048579, 0, 131072, 1048580, 0, 327680, 1048581, 0, 458756, 1048582, 0, 458756, 1048583, 0, 458756, 1048584, 0, 458756, 1048585, 0, 458756, 1048586, 0, 458756, 1048587, 0, 131075, 1048588, 0, 65537, 1048589, 0, 65537, 1048590, 0, 65537, 1048591, 0, 65537, 1048592, 0, 65537, 1048593, 0, 65537, 1048594, 0, 65537, 1048595, 0, 65538, 1114112, 0, 131077, 1114123, 0, 65536, 1114124, 0, 65537, 1114125, 0, 65537, 1114126, 0, 65537, 1114127, 0, 65537, 1114128, 0, 65537, 1114129, 0, 65537, 1114130, 0, 65537, 1114131, 0, 65538, 1179648, 0, 131077, 1179659, 0, 65536, 1179660, 0, 65537, 1179661, 0, 65537, 1179662, 0, 65537, 1179663, 0, 65537, 1179664, 0, 65537, 1179665, 0, 65537, 1179666, 0, 65537, 1179667, 0, 65538, 1245184, 0, 262146, 1245185, 0, 458756, 1245186, 0, 458756, 1245187, 0, 458756, 1245188, 0, 458756, 1245189, 0, 458756, 1245190, 0, 458756, 1245191, 0, 458756, 1245192, 0, 458755, 1245195, 0, 131072, 1245196, 0, 131073, 1245197, 0, 131073, 1245198, 0, 131073, 1245199, 0, 131073, 1245200, 0, 131073, 1245201, 0, 131073, 1245202, 0, 131073, 1245203, 0, 131074 )

[node name="background" type="Sprite" parent="TileMap"]
scale = Vector2( 20, 20 )
z_index = -1
texture = ExtResource( 4 )
centered = false
__meta__ = {
"_edit_lock_": true
}

[node name="Tween" type="Tween" parent="."]

[node name="spike" parent="." instance=ExtResource( 3 )]
position = Vector2( 72, 200 )
rotation = -3.14159

[node name="spike2" parent="." instance=ExtResource( 3 )]
position = Vector2( 88, 200 )
rotation = -3.14159

[node name="spike5" parent="." instance=ExtResource( 3 )]
position = Vector2( 232, 24 )
rotation = -3.14159

[node name="spike6" parent="." instance=ExtResource( 3 )]
position = Vector2( 248, 24 )
rotation = -3.14159

[node name="Shifter" parent="." instance=ExtResource( 5 )]
position = Vector2( 194, 163 )
dir = 1

[node name="Shifter2" parent="." instance=ExtResource( 5 )]
position = Vector2( 126, 163 )

[node name="Terminal" parent="." instance=ExtResource( 6 )]
position = Vector2( 160, 120 )
text = "You know, I supposedly have 46 years, but I have lived MUCH longer."
[connection signal="tween_all_completed" from="Tween" to="." method="_on_Tween_tween_all_completed"]
