[gd_scene load_steps=6 format=2]

[ext_resource path="res://rooms/tileset.tres" type="TileSet" id=1]
[ext_resource path="res://rooms/room.gd" type="Script" id=2]
[ext_resource path="res://objects/Door.tscn" type="PackedScene" id=3]
[ext_resource path="res://gfx/background.png" type="Texture" id=4]
[ext_resource path="res://objects/Key.tscn" type="PackedScene" id=5]

[node name="0" type="Node2D" groups=[
"room",
]]
script = ExtResource( 2 )

[node name="TileMap" type="TileMap" parent="."]
modulate = Color( 0.407843, 0.490196, 0.156863, 1 )
tile_set = ExtResource( 1 )
cell_size = Vector2( 16, 16 )
format = 1
tile_data = PoolIntArray( 0, 0, 0, 1, 0, 1, 2, 0, 1, 3, 0, 1, 4, 0, 262144, 5, 0, 458756, 6, 0, 458756, 7, 0, 458756, 8, 0, 458755, 11, 0, 0, 12, 0, 1, 13, 0, 1, 14, 0, 1, 15, 0, 1, 16, 0, 1, 17, 0, 1, 18, 0, 1, 19, 0, 2, 65536, 0, 65536, 65537, 0, 65537, 65538, 0, 65537, 65539, 0, 65540, 65540, 0, 131074, 65547, 0, 65536, 65548, 0, 65537, 65549, 0, 65537, 65550, 0, 65537, 65551, 0, 65537, 65552, 0, 65537, 65553, 0, 65537, 65554, 0, 65537, 65555, 0, 65538, 131072, 0, 65536, 131073, 0, 65537, 131074, 0, 65537, 131075, 0, 65538, 131083, 0, 65536, 131084, 0, 65537, 131085, 0, 65537, 131086, 0, 65537, 131087, 0, 65537, 131088, 0, 65537, 131089, 0, 65537, 131090, 0, 65537, 131091, 0, 65538, 196608, 0, 65536, 196609, 0, 65537, 196610, 0, 65537, 196611, 0, 65538, 196614, 0, 65541, 196615, 0, 262145, 196616, 0, 1, 196617, 0, 2, 196619, 0, 65536, 196620, 0, 65537, 196621, 0, 65537, 196622, 0, 65537, 196623, 0, 65537, 196624, 0, 65537, 196625, 0, 65537, 196626, 0, 65537, 196627, 0, 65538, 262144, 0, 65536, 262145, 0, 65537, 262146, 0, 65537, 262147, 0, 4, 262148, 0, 2, 262151, 0, 131072, 262152, 0, 131073, 262153, 0, 131074, 262155, 0, 65536, 262156, 0, 65537, 262157, 0, 65537, 262158, 0, 65537, 262159, 0, 65537, 262160, 0, 65537, 262161, 0, 65537, 262162, 0, 65537, 262163, 0, 65538, 327680, 0, 65536, 327681, 0, 65537, 327682, 0, 65537, 327683, 0, 65537, 327684, 0, 4, 327685, 0, 2, 327691, 0, 65536, 327692, 0, 65537, 327693, 0, 65537, 327694, 0, 65537, 327695, 0, 65537, 327696, 0, 65537, 327697, 0, 65537, 327698, 0, 65537, 327699, 0, 65538, 393216, 0, 65536, 393217, 0, 65537, 393218, 0, 65537, 393219, 0, 65537, 393220, 0, 65537, 393221, 0, 4, 393222, 0, 1, 393223, 0, 1, 393224, 0, 2, 393227, 0, 65536, 393228, 0, 65537, 393229, 0, 65537, 393230, 0, 65537, 393231, 0, 65537, 393232, 0, 65537, 393233, 0, 65537, 393234, 0, 65537, 393235, 0, 65538, 458752, 0, 65536, 458753, 0, 65537, 458754, 0, 65537, 458755, 0, 65537, 458756, 0, 65537, 458757, 0, 65537, 458758, 0, 65540, 458759, 0, 131073, 458760, 0, 131074, 458763, 0, 131072, 458764, 0, 131073, 458765, 0, 131073, 458766, 0, 65539, 458767, 0, 65537, 458768, 0, 65537, 458769, 0, 65537, 458770, 0, 65537, 458771, 0, 65538, 524288, 0, 131072, 524289, 0, 131073, 524290, 0, 131073, 524291, 0, 131073, 524292, 0, 131073, 524293, 0, 65539, 524294, 0, 65538, 524302, 0, 131072, 524303, 0, 131073, 524304, 0, 131073, 524305, 0, 131073, 524306, 0, 131073, 524307, 0, 131074, 589829, 0, 65536, 589830, 0, 65538, 589833, 0, 0, 589834, 0, 2, 655365, 0, 65536, 655366, 0, 65538, 655369, 0, 131072, 655370, 0, 131074, 720896, 0, 0, 720897, 0, 1, 720898, 0, 2, 720901, 0, 65536, 720902, 0, 65538, 720910, 0, 0, 720911, 0, 2, 720914, 0, 0, 720915, 0, 2, 786432, 0, 65536, 786433, 0, 65537, 786434, 0, 65538, 786437, 0, 65536, 786438, 0, 4, 786439, 0, 1, 786440, 0, 2, 786443, 0, 0, 786444, 0, 1, 786445, 0, 1, 786446, 0, 3, 786447, 0, 65538, 786450, 0, 65536, 786451, 0, 65538, 851968, 0, 65536, 851969, 0, 65537, 851970, 0, 65538, 851973, 0, 65536, 851974, 0, 65537, 851975, 0, 65537, 851976, 0, 65538, 851979, 0, 65536, 851980, 0, 65537, 851981, 0, 65537, 851982, 0, 65540, 851983, 0, 131074, 851985, 0, 0, 851986, 0, 3, 851987, 0, 65538, 917504, 0, 65536, 917505, 0, 65537, 917506, 0, 65538, 917509, 0, 65536, 917510, 0, 65537, 917511, 0, 65537, 917512, 0, 65538, 917515, 0, 65536, 917516, 0, 65537, 917517, 0, 65540, 917518, 0, 131074, 917521, 0, 65536, 917522, 0, 65537, 917523, 0, 65538, 983040, 0, 65536, 983041, 0, 65537, 983042, 0, 65538, 983045, 0, 131072, 983046, 0, 131073, 983047, 0, 131073, 983048, 0, 131074, 983051, 0, 65536, 983052, 0, 65540, 983053, 0, 131074, 983056, 0, 0, 983057, 0, 3, 983058, 0, 65537, 983059, 0, 65538, 1048576, 0, 65536, 1048577, 0, 65537, 1048578, 0, 65538, 1048587, 0, 131072, 1048588, 0, 131074, 1048591, 0, 0, 1048592, 0, 3, 1048593, 0, 65537, 1048594, 0, 65537, 1048595, 0, 65538, 1114112, 0, 65536, 1114113, 0, 65537, 1114114, 0, 65538, 1114126, 0, 0, 1114127, 0, 3, 1114128, 0, 65537, 1114129, 0, 65537, 1114130, 0, 65537, 1114131, 0, 65538, 1179648, 0, 65536, 1179649, 0, 65537, 1179650, 0, 4, 1179651, 0, 1, 1179652, 0, 1, 1179653, 0, 1, 1179654, 0, 1, 1179655, 0, 1, 1179656, 0, 2, 1179661, 0, 0, 1179662, 0, 3, 1179663, 0, 65537, 1179664, 0, 65537, 1179665, 0, 65537, 1179666, 0, 65537, 1179667, 0, 65538, 1245184, 0, 131072, 1245185, 0, 131073, 1245186, 0, 131073, 1245187, 0, 131073, 1245188, 0, 131073, 1245189, 0, 131073, 1245190, 0, 131073, 1245191, 0, 131073, 1245192, 0, 131074, 1245195, 0, 65541, 1245196, 0, 458756, 1245197, 0, 327681, 1245198, 0, 131073, 1245199, 0, 131073, 1245200, 0, 131073, 1245201, 0, 131073, 1245202, 0, 131073, 1245203, 0, 131074 )

[node name="background" type="Sprite" parent="TileMap"]
scale = Vector2( 20, 20 )
z_index = -1
texture = ExtResource( 4 )
centered = false

[node name="Tween" type="Tween" parent="."]

[node name="Key" parent="." instance=ExtResource( 5 )]
position = Vector2( 161, 128 )
value = 3

[node name="Door" parent="." instance=ExtResource( 3 )]
position = Vector2( 312, 160 )
key = 1
[connection signal="tween_all_completed" from="Tween" to="." method="_on_Tween_tween_all_completed"]
