[gd_scene load_steps=8 format=2]

[ext_resource path="res://rooms/tileset.tres" type="TileSet" id=1]
[ext_resource path="res://rooms/room.gd" type="Script" id=2]
[ext_resource path="res://objects/Door.tscn" type="PackedScene" id=3]
[ext_resource path="res://objects/spike.tscn" type="PackedScene" id=4]
[ext_resource path="res://gfx/background.png" type="Texture" id=5]
[ext_resource path="res://objects/Key.tscn" type="PackedScene" id=6]
[ext_resource path="res://objects/Shifter.tscn" type="PackedScene" id=7]

[node name="0" type="Node2D" groups=[
"room",
]]
script = ExtResource( 2 )

[node name="TileMap" type="TileMap" parent="."]
modulate = Color( 0.156863, 0.490196, 0.396078, 1 )
tile_set = ExtResource( 1 )
cell_size = Vector2( 16, 16 )
format = 1
tile_data = PoolIntArray( 0, 0, 262149, 1, 0, 458756, 2, 0, 458756, 3, 0, 458756, 4, 0, 458756, 5, 0, 458756, 6, 0, 458756, 7, 0, 458756, 8, 0, 458755, 11, 0, 65541, 12, 0, 458756, 13, 0, 458756, 14, 0, 458756, 15, 0, 458756, 16, 0, 458756, 17, 0, 458756, 18, 0, 458756, 19, 0, 262148, 65536, 0, 131077, 65555, 0, 131077, 131072, 0, 131077, 131080, 0, 65541, 131081, 0, 458756, 131082, 0, 458756, 131083, 0, 458755, 131091, 0, 131077, 196608, 0, 131077, 196627, 0, 131077, 262144, 0, 131077, 262149, 0, 0, 262150, 0, 2, 262157, 0, 0, 262158, 0, 2, 262163, 0, 131077, 327680, 0, 131077, 327685, 0, 131072, 327686, 0, 131074, 327693, 0, 131072, 327694, 0, 131074, 327699, 0, 131077, 393216, 0, 131077, 393235, 0, 131077, 458752, 0, 131077, 458754, 0, 65541, 458755, 0, 458756, 458756, 0, 458755, 458760, 0, 458754, 458763, 0, 458754, 458767, 0, 65541, 458768, 0, 458756, 458769, 0, 458755, 458771, 0, 131077, 524288, 0, 5, 524295, 0, 65541, 524296, 0, 262147, 524299, 0, 262146, 524300, 0, 458755, 524307, 0, 5, 720896, 0, 458754, 720905, 0, 0, 720906, 0, 2, 720915, 0, 458754, 786432, 0, 131077, 786435, 0, 0, 786436, 0, 2, 786441, 0, 131072, 786442, 0, 131074, 786447, 0, 0, 786448, 0, 2, 786451, 0, 131077, 851968, 0, 131077, 851971, 0, 131072, 851972, 0, 131074, 851983, 0, 131072, 851984, 0, 131074, 851987, 0, 131077, 917504, 0, 131077, 917523, 0, 131077, 983040, 0, 131077, 983046, 0, 0, 983047, 0, 2, 983052, 0, 0, 983053, 0, 2, 983059, 0, 131077, 1048576, 0, 327682, 1048577, 0, 1, 1048578, 0, 2, 1048582, 0, 131072, 1048583, 0, 131074, 1048588, 0, 131072, 1048589, 0, 131074, 1048593, 0, 0, 1048594, 0, 1, 1048595, 0, 327683, 1114112, 0, 65536, 1114113, 0, 65537, 1114114, 0, 65538, 1114129, 0, 65536, 1114130, 0, 65537, 1114131, 0, 65538, 1179648, 0, 65536, 1179649, 0, 65537, 1179650, 0, 65538, 1179665, 0, 65536, 1179666, 0, 65537, 1179667, 0, 65538, 1245184, 0, 131072, 1245185, 0, 131073, 1245186, 0, 327680, 1245187, 0, 458756, 1245188, 0, 458756, 1245189, 0, 458756, 1245190, 0, 458756, 1245191, 0, 458756, 1245192, 0, 458755, 1245195, 0, 65541, 1245196, 0, 458756, 1245197, 0, 458756, 1245198, 0, 458756, 1245199, 0, 458756, 1245200, 0, 458756, 1245201, 0, 327681, 1245202, 0, 131073, 1245203, 0, 131074 )

[node name="background" type="Sprite" parent="TileMap"]
scale = Vector2( 20, 20 )
z_index = -1
texture = ExtResource( 5 )
centered = false
__meta__ = {
"_edit_lock_": true
}

[node name="Tween" type="Tween" parent="."]

[node name="spike3" parent="." instance=ExtResource( 4 )]
position = Vector2( 56, 296 )

[node name="spike4" parent="." instance=ExtResource( 4 )]
position = Vector2( 72, 296 )

[node name="spike5" parent="." instance=ExtResource( 4 )]
position = Vector2( 88, 296 )

[node name="spike6" parent="." instance=ExtResource( 4 )]
position = Vector2( 104, 296 )

[node name="spike7" parent="." instance=ExtResource( 4 )]
position = Vector2( 120, 296 )

[node name="spike8" parent="." instance=ExtResource( 4 )]
position = Vector2( 136, 296 )

[node name="spike9" parent="." instance=ExtResource( 4 )]
position = Vector2( 184, 296 )

[node name="spike10" parent="." instance=ExtResource( 4 )]
position = Vector2( 200, 296 )

[node name="spike11" parent="." instance=ExtResource( 4 )]
position = Vector2( 216, 296 )

[node name="spike12" parent="." instance=ExtResource( 4 )]
position = Vector2( 232, 296 )

[node name="spike13" parent="." instance=ExtResource( 4 )]
position = Vector2( 248, 296 )

[node name="spike14" parent="." instance=ExtResource( 4 )]
position = Vector2( 264, 296 )

[node name="spike17" parent="." instance=ExtResource( 4 )]
position = Vector2( 56, 184 )

[node name="spike18" parent="." instance=ExtResource( 4 )]
position = Vector2( 72, 184 )

[node name="spike19" parent="." instance=ExtResource( 4 )]
position = Vector2( 248, 184 )

[node name="spike20" parent="." instance=ExtResource( 4 )]
position = Vector2( 264, 184 )

[node name="spike21" parent="." instance=ExtResource( 4 )]
position = Vector2( 40, 104 )

[node name="spike22" parent="." instance=ExtResource( 4 )]
position = Vector2( 56, 104 )

[node name="spike23" parent="." instance=ExtResource( 4 )]
position = Vector2( 72, 104 )

[node name="spike24" parent="." instance=ExtResource( 4 )]
position = Vector2( 248, 104 )

[node name="spike25" parent="." instance=ExtResource( 4 )]
position = Vector2( 264, 104 )

[node name="spike26" parent="." instance=ExtResource( 4 )]
position = Vector2( 280, 104 )

[node name="spike27" parent="." instance=ExtResource( 4 )]
position = Vector2( 200, 120 )

[node name="spike28" parent="." instance=ExtResource( 4 )]
position = Vector2( 120, 120 )

[node name="Key" parent="." instance=ExtResource( 6 )]
position = Vector2( 98, 51 )
value = 4

[node name="Door" parent="." instance=ExtResource( 3 )]
position = Vector2( 160, 312 )
rotation = 1.57079
key = 3

[node name="Shifter" parent="." instance=ExtResource( 7 )]
position = Vector2( 160, 163 )
dir = 1
[connection signal="tween_all_completed" from="Tween" to="." method="_on_Tween_tween_all_completed"]
